%YAML 1.1
%TAG !u! tag:unity3d.com,2011:
--- !u!114 &11400000
MonoBehaviour:
  m_ObjectHideFlags: 0
  m_CorrespondingSourceObject: {fileID: 0}
  m_PrefabInternal: {fileID: 0}
  m_GameObject: {fileID: 0}
  m_Enabled: 1
  m_EditorHideFlags: 0
  m_Script: {fileID: 11500000, guid: 20e1a9534da05ef42af28d71f56af97b, type: 3}
  m_Name: DifficultySettings
  m_EditorClassIdentifier: 
  settings:
  - level: 1
    spawnInterval: 7
    hungerGainPerSecond: 1
    scoreToNextLevel: 100
  - level: 2
    spawnInterval: 6
    hungerGainPerSecond: 1.5
    scoreToNextLevel: 250
  - level: 3
    spawnInterval: 5.5
    hungerGainPerSecond: 1.5
    scoreToNextLevel: 350
  - level: 4
    spawnInterval: 5
    hungerGainPerSecond: 2
    scoreToNextLevel: 450
  - level: 5
    spawnInterval: 4.5
    hungerGainPerSecond: 2.2
    scoreToNextLevel: 600
  - level: 6
    spawnInterval: 4
    hungerGainPerSecond: 2.5
    scoreToNextLevel: 700
  - level: 7
    spawnInterval: 3.5
    hungerGainPerSecond: 2.8
    scoreToNextLevel: 850
  - level: 8
    spawnInterval: 3
    hungerGainPerSecond: 3
    scoreToNextLevel: 950
  - level: 9
    spawnInterval: 2.8
    hungerGainPerSecond: 3.25
    scoreToNextLevel: 1050
  - level: 10
    spawnInterval: 2.5
    hungerGainPerSecond: 3.5
    scoreToNextLevel: 1150
  - level: 11
    spawnInterval: 2.25
    hungerGainPerSecond: 3.75
    scoreToNextLevel: 1300
  - level: 12
    spawnInterval: 2
    hungerGainPerSecond: 4
    scoreToNextLevel: 1500
  - level: 13
    spawnInterval: 1.8
    hungerGainPerSecond: 4.2
    scoreToNextLevel: 2000
