%YAML 1.1
%TAG !u! tag:unity3d.com,2011:
--- !u!1045 &1
EditorBuildSettings:
  m_ObjectHideFlags: 0
  serializedVersion: 2
  m_Scenes:
  - enabled: 0
    path: Assets/Scenes/MarcialScene.unity
    guid: 99c9720ab356a0642a771bea13969a05
  - enabled: 0
    path: Assets/Scenes/FernandoScene.unity
    guid: 5e0fc802d74a81444a59901a0aa6c193
  - enabled: 1
    path: Assets/Scenes/TestScene.unity
    guid: 60ca0a08ef4393e45a7f21104d60dc1b
  m_configObjects: {}
